index – Reproducible data analysis
…
ℹ Use `spec()` to retrieve the full column specification for this data.
ℹ Specify the column types or set `show_col_types = FALSE` to quiet this message.

gapminder <- read_csv("data_raw/gapminder.csv")

Print out the data

Inspect the data just like any other object (variable) in R: type the name of the object into the console

gapminder

# A tibble: 1,704 × 6
  country     continent  year lifeExp      pop gdpPercap
  <chr>       <chr>     <dbl>   <dbl>    <dbl>     <dbl>
1 Afghanistan Asia       1952    28.8  8425333      779.
2 Afghanistan Asia       1957    30.3  9240934      821.
3 Afghanistan Asia       1962    32.0 10267083      853.
4 Afghanistan Asia       1967    34.0 11537966      836.
5 Afghanistan Asia       1972    36.1 13079460      740.
6 Afghanistan Asia       1977    38.4 14880372      786.
# ℹ 1,698 more rows
…
The meaning of some columns is obvious (country, continent, year), but not others

pop: Population

lifeExp: Life expectancy (寿命)

gdpPercap: GDP per capita (一人当たりの国内総生産)

Sort data with arrange()

First provide the name of the dataframe, then the column to sort by

arrange(gapminder, lifeExp)

# A tibble: 1,704 × 6
  country      continent  year lifeExp     pop gdpPercap
  <chr>        <chr>     <dbl>   <dbl>   <dbl>     <dbl>
1 Rwanda       Africa     1992    23.6 7290203      737.
2 Afghanistan  Asia       1952    28.8 8425333      779.
3 Gambia       Africa     1952    30    284320      485.
4 Angola       Africa     1952    30.0 4232095     3521.
5 Sierra Leone Africa     1952    30.3 2143249      880.
6 Afghanistan  Asia       1957    30.3 9240934      821.
# ℹ 1,698 more rows

Sort data with arrange()

The default setting is to sort from small to large

To sort in the reverse (descending) direction, use desc()

arrange(gapminder, desc(lifeExp))

# A tibble: 1,704 × 6
  country          continent  year lifeExp       pop gdpPercap
  <chr>            <chr>     <dbl>   <dbl>     <dbl>     <dbl>
1 Japan            Asia       2007    82.6 127467972    31656.
2 Hong Kong, China Asia       2007    82.2   6980412    39725.
3 Japan            Asia       2002    82   127065841    28605.
4 Iceland          Europe     2007    81.8    301931    36181.
5 Switzerland      Europe     2007    81.7   7554661    37506.
6 Hong Kong, China Asia       2002    81.5   6762476    30209.
# ℹ 1,698 more rows

Sort data with arrange()

You can sort on multiple columns

Ties will be sorted by the next column

arrange(gapminder, continent, lifeExp)

# A tibble: 1,704 × 6
  country      continent  year lifeExp     pop gdpPercap
  <chr>        <chr>     <dbl>   <dbl>   <dbl>     <dbl>
1 Rwanda       Africa     1992    23.6 7290203      737.
2 Gambia       Africa     1952    30    284320      485.
3 Angola       Africa     1952    30.0 4232095     3521.
4 Sierra Leone Africa     1952    30.3 2143249      880.
5 Mozambique   Africa     1952    31.3 6446316      469.
6 Sierra Leone Africa     1957    31.6 2295678     1004.
# ℹ 1,698 more rows
Challenge

Sort the data by year, first going from smallest to biggest, then from biggest to smallest.

What is the earliest year in the data?

What is the latest year in the data?

Narrow down columns with select()

First provide the name of the dataframe, then the columns to select

select(gapminder, year, country, gdpPercap)

# A tibble: 1,704 × 3
   year country     gdpPercap
  <dbl> <chr>           <dbl>
1  1952 Afghanistan      779.
2  1957 Afghanistan      821.
3  1962 Afghanistan      853.
4  1967 Afghanistan      836.
5  1972 Afghanistan      740.
6  1977 Afghanistan      786.
# ℹ 1,698 more rows

Saving your output

Notice that although we have used several functions, gapminder is still the same:

gapminder

# A tibble: 1,704 × 6
  country     continent  year lifeExp      pop gdpPercap
  <chr>       <chr>     <dbl>   <dbl>    <dbl>     <dbl>
1 Afghanistan Asia       1952    28.8  8425333      779.
2 Afghanistan Asia       1957    30.3  9240934      821.
3 Afghanistan Asia       1962    32.0 10267083      853.
4 Afghanistan Asia       1967    34.0 11537966      836.
5 Afghanistan Asia       1972    36.1 13079460      740.
6 Afghanistan Asia       1977    38.4 14880372      786.
# ℹ 1,698 more rows
…
You can think of it as saying “and then”

Do this and then do this, and then do this…

Do this %>% do this, %>% do this…

About pipes

We can even use the pipe just with one function:

Read this as “start with gapminder and then select only year, country, and population”

gapminder %>% select(year, country, pop)

# A tibble: 1,704 × 3
   year country          pop
  <dbl> <chr>          <dbl>
1  1952 Afghanistan  8425333
2  1957 Afghanistan  9240934
3  1962 Afghanistan 10267083
4  1967 Afghanistan 11537966
5  1972 Afghanistan 13079460
6  1977 Afghanistan 14880372
# ℹ 1,698 more rows

About pipes

This becomes very useful when we want to do multiple steps

Read this as “start with gapminder, and then select only year, country, and population, and then arrange by year”

gapminder %>% select(year, country, pop) %>% arrange(year)

# A tibble: 1,704 × 3
   year country         pop
  <dbl> <chr>         <dbl>
1  1952 Afghanistan 8425333
2  1952 Albania     1282697
3  1952 Algeria     9279525
4  1952 Angola      4232095
# ℹ 1,700 more rows

About pipes

We can make it easier to read by putting each step on its own line

gapminder %>%
  select(year, country, pop) %>%
  arrange(year)

# A tibble: 1,704 × 3
   year country          pop
  <dbl> <chr>          <dbl>
1  1952 Afghanistan  8425333
2  1952 Albania      1282697
3  1952 Algeria      9279525
4  1952 Angola       4232095
5  1952 Argentina   17876956
6  1952 Australia    8691212
# ℹ 1,698 more rows
…
This way, you don’t have to save each intermediate step

This is a very useful way to manipulate data

I will now use the pipe (%>%) for the rest of the lesson

Subset rows with filter()

Use the filter() function to only keep rows that meet a certain condition

For example, let’s only keep the data in Europe:

gapminder %>% filter(continent == "Europe")

# A tibble: 360 × 6
  country continent  year lifeExp     pop gdpPercap
  <chr>   <chr>     <dbl>   <dbl>   <dbl>     <dbl>
1 Albania Europe     1952    55.2 1282697     1601.
2 Albania Europe     1957    59.3 1476505     1942.
3 Albania Europe     1962    64.8 1728137     2313.
4 Albania Europe     1967    66.2 1984060     2760.
5 Albania Europe     1972    67.7 2263554     3313.
6 Albania Europe     1977    68.9 2509048     3533.
# ℹ 354 more rows

Challenge

Using the pipe (%>%) and the functions we have learned so far, filter the data to Asia, then select only the country, year, and population columns.

Modify data with mutate()

For example, we could change the units of population to millions of people:

gapminder %>% mutate(pop = pop/1000000)

# A tibble: 1,704 × 6
  country     continent  year lifeExp   pop gdpPercap
  <chr>       <chr>     <dbl>   <dbl> <dbl>     <dbl>
1 Afghanistan Asia       1952    28.8  8.43      779.
2 Afghanistan Asia       1957    30.3  9.24      821.
3 Afghanistan Asia       1962    32.0 10.3       853.
4 Afghanistan Asia       1967    34.0 11.5       836.
5 Afghanistan Asia       1972    36.1 13.1       740.
6 Afghanistan Asia       1977    38.4 14.9       786.
# ℹ 1,698 more rows

Modify data with mutate()

If we provide a new column name, that column will be added

gapminder %>% mutate(pop_mil = pop/1000000)

# A tibble: 1,704 × 7
  country     continent  year lifeExp      pop gdpPercap pop_mil
  <chr>       <chr>     <dbl>   <dbl>    <dbl>     <dbl>   <dbl>
1 Afghanistan Asia       1952    28.8  8425333      779.    8.43
2 Afghanistan Asia       1957    30.3  9240934      821.    9.24
3 Afghanistan Asia       1962    32.0 10267083      853.   10.3 
4 Afghanistan Asia       1967    34.0 11537966      836.   11.5 
5 Afghanistan Asia       1972    36.1 13079460      740.   13.1 
6 Afghanistan Asia       1977    38.4 14880372      786.   14.9 
# ℹ 1,698 more rows
…
# A tibble: 1 × 1
    total_pop
        <dbl>
1 50440465801

Use group_by() to do calculations per group

However, it is often more useful to calculate such summary statistics for particular groups

To do this, first specify the groups with group_by():

gapminder %>% group_by(continent)

# A tibble: 1,704 × 6
# Groups:   continent [5]
  country     continent  year lifeExp      pop gdpPercap
  <chr>       <chr>     <dbl>   <dbl>    <dbl>     <dbl>
1 Afghanistan Asia       1952    28.8  8425333      779.
2 Afghanistan Asia       1957    30.3  9240934      821.
3 Afghanistan Asia       1962    32.0 10267083      853.
4 Afghanistan Asia       1967    34.0 11537966      836.
# ℹ 1,700 more rows
…
